{
    "basename": "asr-array2-e7997a8",
    "cmd": "lfortran --show-asr --no-color {infile} -o {outfile}",
    "infile": "tests/array2.f90",
    "infile_hash": "ec67f153c5f506f6a12ef94b06d43c7e9e86b9fc33c9c196029183f0",
    "outfile": null,
    "outfile_hash": null,
    "stdout": "asr-array2-e7997a8.stdout",
    "stdout_hash": "ba3e96ff96f0e3e3ed5892497ed3da1326a7ed0df626fc3fa9d97f49",
    "stderr": null,
    "stderr_hash": null,
    "returncode": 0
}