{
    "basename": "asr-global_scope4-1af6ab9",
    "cmd": "lfortran --show-asr --no-color {infile} -o {outfile}",
    "infile": "tests/global_scope4.f90",
    "infile_hash": "da0256e95ad866af376d9ded3cd439463cb1e47dffac6aa88c0bbadf",
    "outfile": null,
    "outfile_hash": null,
    "stdout": "asr-global_scope4-1af6ab9.stdout",
    "stdout_hash": "9f7944043bc0d697356c2b482759906d1b0c9d91c420674474b892ed",
    "stderr": null,
    "stderr_hash": null,
    "returncode": 0
}