{
    "basename": "asr-modules_01-3535389",
    "cmd": "lfortran --show-asr --no-color {infile} -o {outfile}",
    "infile": "tests/../integration_tests/modules_01.f90",
    "infile_hash": "697383eb5d15cbcf71af84f8421bbe2d4e7a7d094c24b90d5b0c4678",
    "outfile": null,
    "outfile_hash": null,
    "stdout": "asr-modules_01-3535389.stdout",
    "stdout_hash": "0ecd8e3162406ed3a4a163b400dbcb6bcd57f0a6bb60919b39640350",
    "stderr": null,
    "stderr_hash": null,
    "returncode": 0
}