{
    "basename": "asr-init_values-19dfa76",
    "cmd": "lfortran --show-asr --no-color {infile} -o {outfile}",
    "infile": "tests/../integration_tests/init_values.f90",
    "infile_hash": "db9094b525977cfbda11b67b8d05ba8953b83ad061e85fc0d3900ccc",
    "outfile": null,
    "outfile_hash": null,
    "stdout": "asr-init_values-19dfa76.stdout",
    "stdout_hash": "33926ca3afed0ec827d8a4a9a4a990af7ddb9961b0c799c4590744b9",
    "stderr": null,
    "stderr_hash": null,
    "returncode": 0
}