{
    "basename": "ast-derived_types_02-35d66e0",
    "cmd": "lfortran --show-ast --no-color {infile} -o {outfile}",
    "infile": "tests/derived_types_02.f90",
    "infile_hash": "b73c7ed8a425bd29302ce0ed4c2fc58ff37c976bb32ebc05805d8035",
    "outfile": null,
    "outfile_hash": null,
    "stdout": "ast-derived_types_02-35d66e0.stdout",
    "stdout_hash": "9ec4d411704d694ea7abff68a80c99e4f1b299ecd19520fbeb2aaada",
    "stderr": null,
    "stderr_hash": null,
    "returncode": 0
}