{
    "basename": "ast-subroutine4-63e648f",
    "cmd": "lfortran --show-ast --no-color {infile} -o {outfile}",
    "infile": "tests/subroutine4.f90",
    "infile_hash": "06ca8a1c322b25fe9280c43f558f6fa92e1a4843b6f6b77e206fdf4e",
    "outfile": null,
    "outfile_hash": null,
    "stdout": "ast-subroutine4-63e648f.stdout",
    "stdout_hash": "f282e6e4987ab6a1380886a6401d0680dca6e743cf7807f04f34cb44",
    "stderr": null,
    "stderr_hash": null,
    "returncode": 0
}