{
    "basename": "ast-namelist1-de38505",
    "cmd": "lfortran --show-ast --no-color {infile} -o {outfile}",
    "infile": "tests/namelist1.f90",
    "infile_hash": "82b81ebf89597c4cee2bae25cbe602a58d7d628cf9dec14337630861",
    "outfile": null,
    "outfile_hash": null,
    "stdout": "ast-namelist1-de38505.stdout",
    "stdout_hash": "77cb4e9eb2225ca297ceb14caca469b2c07f861b2d95f4102071074d",
    "stderr": null,
    "stderr_hash": null,
    "returncode": 0
}