{
    "basename": "ast-subroutine1-fdc40b3",
    "cmd": "lfortran --show-ast --no-color {infile} -o {outfile}",
    "infile": "tests/subroutine1.f90",
    "infile_hash": "e209c22328b423e75d6801f3c0ef19bc120936196435dff2cb19df31",
    "outfile": null,
    "outfile_hash": null,
    "stdout": "ast-subroutine1-fdc40b3.stdout",
    "stdout_hash": "1f77e64a4874689edd78e9571169f3deadccc5a5190bb8e15a122706",
    "stderr": null,
    "stderr_hash": null,
    "returncode": 0
}