{
    "basename": "ast-allocate_01-08346a8",
    "cmd": "lfortran --show-ast --no-color {infile} -o {outfile}",
    "infile": "tests/../integration_tests/allocate_01.f90",
    "infile_hash": "6782e86a33c1a6e5bd90ee4274fe910d75018f128dd899351b32d3c6",
    "outfile": null,
    "outfile_hash": null,
    "stdout": "ast-allocate_01-08346a8.stdout",
    "stdout_hash": "662a819803ac96ceef10ec67c898f8aed8a5b2df9d0a427459ea8280",
    "stderr": null,
    "stderr_hash": null,
    "returncode": 0
}