{
    "basename": "ast-types_07-54d4a85",
    "cmd": "lfortran --show-ast --no-color {infile} -o {outfile}",
    "infile": "tests/../integration_tests/types_07.f90",
    "infile_hash": "a918662a55a6896275936f024c6c39132fd389d478f71afb080995a0",
    "outfile": null,
    "outfile_hash": null,
    "stdout": "ast-types_07-54d4a85.stdout",
    "stdout_hash": "2caa8ce3b83a99c6d5411a354f660120ccfe1a4bf09ca27af35d1693",
    "stderr": null,
    "stderr_hash": null,
    "returncode": 0
}