{
    "basename": "llvm-while_02-7138210",
    "cmd": "lfortran --show-llvm {infile} -o {outfile}",
    "infile": "tests/../integration_tests/while_02.f90",
    "infile_hash": "a905fa7d48385e1df9ac039aabeadb0362aa1b11587096303c0839b2",
    "outfile": null,
    "outfile_hash": null,
    "stdout": "llvm-while_02-7138210.stdout",
    "stdout_hash": "8ae341c28b495d1eff66f96ce37c05a5d31e25c95765afe098e3da38",
    "stderr": null,
    "stderr_hash": null,
    "returncode": 0
}