{
    "basename": "llvm-while_01-0263976",
    "cmd": "lfortran --show-llvm {infile} -o {outfile}",
    "infile": "tests/../integration_tests/while_01.f90",
    "infile_hash": "41dfb6c31552489d495806f20788fe3012284c0d6afbbc686d400c42",
    "outfile": null,
    "outfile_hash": null,
    "stdout": "llvm-while_01-0263976.stdout",
    "stdout_hash": "8140be71bf1be8114f9688bbe775f1bf59cfb45cdcd4fae158c54987",
    "stderr": null,
    "stderr_hash": null,
    "returncode": 0
}