{
    "basename": "llvm-logical4-551ceb9",
    "cmd": "lfortran --show-llvm {infile} -o {outfile}",
    "infile": "tests/../integration_tests/logical4.f90",
    "infile_hash": "b7d7e719c411795f29b9664e000f2530e011215d65991c8e2b477707",
    "outfile": null,
    "outfile_hash": null,
    "stdout": "llvm-logical4-551ceb9.stdout",
    "stdout_hash": "55e5d3a3c515ca7cfdce3ab57f868ec4de546840da7db8224b250a4c",
    "stderr": null,
    "stderr_hash": null,
    "returncode": 0
}