; ModuleID = 'LFortran'
source_filename = "LFortran"

@0 = private unnamed_addr constant [12 x i8] c"ERROR STOP\0A\00", align 1
@1 = private unnamed_addr constant [12 x i8] c"ERROR STOP\0A\00", align 1
@2 = private unnamed_addr constant [12 x i8] c"ERROR STOP\0A\00", align 1
@3 = private unnamed_addr constant [12 x i8] c"ERROR STOP\0A\00", align 1
@4 = private unnamed_addr constant [12 x i8] c"ERROR STOP\0A\00", align 1
@5 = private unnamed_addr constant [12 x i8] c"ERROR STOP\0A\00", align 1
@6 = private unnamed_addr constant [12 x i8] c"ERROR STOP\0A\00", align 1
@7 = private unnamed_addr constant [12 x i8] c"ERROR STOP\0A\00", align 1
@8 = private unnamed_addr constant [12 x i8] c"ERROR STOP\0A\00", align 1

define void @f(i64* %a, i64* %b) {
.entry:
  %0 = load i64, i64* %a, align 4
  %1 = add i64 %0, 1
  store i64 %1, i64* %b, align 4
  ret void
}

define i64 @main() {
.entry:
  %i = alloca i64, align 8
  %j = alloca i64, align 8
  store i64 1, i64* %i, align 4
  store i64 1, i64* %j, align 4
  %0 = load i64, i64* %j, align 4
  %1 = icmp ne i64 %0, 1
  br i1 %1, label %then, label %else

then:                                             ; preds = %.entry
  call void (i8*, ...) @_lfortran_printf(i8* getelementptr inbounds ([12 x i8], [12 x i8]* @0, i32 0, i32 0))
  call void @exit(i64 1)
  br label %ifcont

else:                                             ; preds = %.entry
  br label %ifcont

ifcont:                                           ; preds = %else, %then
  %iftmp = phi i64 [ 1, %then ], [ 2, %else ]
  call void @f(i64* %i, i64* %j)
  %2 = load i64, i64* %i, align 4
  %3 = icmp ne i64 %2, 1
  br i1 %3, label %then1, label %else2

then1:                                            ; preds = %ifcont
  call void (i8*, ...) @_lfortran_printf(i8* getelementptr inbounds ([12 x i8], [12 x i8]* @1, i32 0, i32 0))
  call void @exit(i64 1)
  br label %ifcont3

else2:                                            ; preds = %ifcont
  br label %ifcont3

ifcont3:                                          ; preds = %else2, %then1
  %iftmp4 = phi i64 [ 1, %then1 ], [ 2, %else2 ]
  %4 = load i64, i64* %j, align 4
  %5 = icmp ne i64 %4, 2
  br i1 %5, label %then5, label %else6

then5:                                            ; preds = %ifcont3
  call void (i8*, ...) @_lfortran_printf(i8* getelementptr inbounds ([12 x i8], [12 x i8]* @2, i32 0, i32 0))
  call void @exit(i64 1)
  br label %ifcont7

else6:                                            ; preds = %ifcont3
  br label %ifcont7

ifcont7:                                          ; preds = %else6, %then5
  %iftmp8 = phi i64 [ 1, %then5 ], [ 2, %else6 ]
  store i64 1, i64* %j, align 4
  %6 = load i64, i64* %j, align 4
  %7 = icmp ne i64 %6, 1
  br i1 %7, label %then9, label %else10

then9:                                            ; preds = %ifcont7
  call void (i8*, ...) @_lfortran_printf(i8* getelementptr inbounds ([12 x i8], [12 x i8]* @3, i32 0, i32 0))
  call void @exit(i64 1)
  br label %ifcont11

else10:                                           ; preds = %ifcont7
  br label %ifcont11

ifcont11:                                         ; preds = %else10, %then9
  %iftmp12 = phi i64 [ 1, %then9 ], [ 2, %else10 ]
  %8 = alloca i64, align 8
  store i64 3, i64* %8, align 4
  call void @f(i64* %8, i64* %j)
  %9 = load i64, i64* %j, align 4
  %10 = icmp ne i64 %9, 4
  br i1 %10, label %then13, label %else14

then13:                                           ; preds = %ifcont11
  call void (i8*, ...) @_lfortran_printf(i8* getelementptr inbounds ([12 x i8], [12 x i8]* @4, i32 0, i32 0))
  call void @exit(i64 1)
  br label %ifcont15

else14:                                           ; preds = %ifcont11
  br label %ifcont15

ifcont15:                                         ; preds = %else14, %then13
  %iftmp16 = phi i64 [ 1, %then13 ], [ 2, %else14 ]
  store i64 1, i64* %j, align 4
  %11 = load i64, i64* %j, align 4
  %12 = icmp ne i64 %11, 1
  br i1 %12, label %then17, label %else18

then17:                                           ; preds = %ifcont15
  call void (i8*, ...) @_lfortran_printf(i8* getelementptr inbounds ([12 x i8], [12 x i8]* @5, i32 0, i32 0))
  call void @exit(i64 1)
  br label %ifcont19

else18:                                           ; preds = %ifcont15
  br label %ifcont19

ifcont19:                                         ; preds = %else18, %then17
  %iftmp20 = phi i64 [ 1, %then17 ], [ 2, %else18 ]
  %13 = alloca i64, align 8
  store i64 3, i64* %13, align 4
  call void @f(i64* %13, i64* %j)
  %14 = load i64, i64* %j, align 4
  %15 = icmp ne i64 %14, 4
  br i1 %15, label %then21, label %else22

then21:                                           ; preds = %ifcont19
  call void (i8*, ...) @_lfortran_printf(i8* getelementptr inbounds ([12 x i8], [12 x i8]* @6, i32 0, i32 0))
  call void @exit(i64 1)
  br label %ifcont23

else22:                                           ; preds = %ifcont19
  br label %ifcont23

ifcont23:                                         ; preds = %else22, %then21
  %iftmp24 = phi i64 [ 1, %then21 ], [ 2, %else22 ]
  store i64 1, i64* %j, align 4
  %16 = load i64, i64* %j, align 4
  %17 = icmp ne i64 %16, 1
  br i1 %17, label %then25, label %else26

then25:                                           ; preds = %ifcont23
  call void (i8*, ...) @_lfortran_printf(i8* getelementptr inbounds ([12 x i8], [12 x i8]* @7, i32 0, i32 0))
  call void @exit(i64 1)
  br label %ifcont27

else26:                                           ; preds = %ifcont23
  br label %ifcont27

ifcont27:                                         ; preds = %else26, %then25
  %iftmp28 = phi i64 [ 1, %then25 ], [ 2, %else26 ]
  %18 = load i64, i64* %i, align 4
  %19 = add i64 %18, 2
  %20 = alloca i64, align 8
  store i64 %19, i64* %20, align 4
  call void @f(i64* %20, i64* %j)
  %21 = load i64, i64* %j, align 4
  %22 = icmp ne i64 %21, 4
  br i1 %22, label %then29, label %else30

then29:                                           ; preds = %ifcont27
  call void (i8*, ...) @_lfortran_printf(i8* getelementptr inbounds ([12 x i8], [12 x i8]* @8, i32 0, i32 0))
  call void @exit(i64 1)
  br label %ifcont31

else30:                                           ; preds = %ifcont27
  br label %ifcont31

ifcont31:                                         ; preds = %else30, %then29
  %iftmp32 = phi i64 [ 1, %then29 ], [ 2, %else30 ]
  ret i64 0
}

declare void @_lfortran_printf(i8*, ...)

declare void @exit(i64)

